<svg width="26" height="26" viewBox="0 0 26 26" fill="none" xmlns="http://www.w3.org/2000/svg">
<path d="M23.7148 3.09766H2.28516C1.0267 3.09766 0 4.12323 0 5.38281V20.6172C0 21.8725 1.02213 22.9023 2.28516 22.9023H23.7148C24.9702 22.9023 26 21.8802 26 20.6172V5.38281C26 4.1275 24.9779 3.09766 23.7148 3.09766ZM23.3993 4.62109L13.0484 14.972L2.60807 4.62109H23.3993ZM1.52344 20.3017V5.691L8.86026 12.9649L1.52344 20.3017ZM2.60066 21.3789L9.94211 14.0375L12.5145 16.5878C12.8123 16.883 13.2929 16.8821 13.5894 16.5855L16.0977 14.0772L23.3993 21.3789H2.60066ZM24.4766 20.3017L17.1749 13L24.4766 5.69827V20.3017Z" fill="white"/>
</svg>
