<svg width="168" height="136" viewBox="-45 -35 146 118" xmlns="http://www.w3.org/2000/svg">
    <g fill="none" fill-rule="evenodd">
        <!-- <g transform="translate(2 1)" stroke="#FFF" stroke-width="1.5"> -->
            <circle cx="42.601" cy="11.462" r="3" fill-opacity="1" fill="#EC3A34">
                <animate attributeName="fill-opacity"
                     begin="0s" dur="1.3s"
                     values="1;0;0;0;1;1;1;1" calcMode="linear"
                     repeatCount="indefinite" />
            </circle>
            <circle cx="49.063" cy="27.063" r="3" fill-opacity="0" fill="#EC3A34">
                <animate attributeName="fill-opacity"
                     begin="0s" dur="1.3s"
                     values="1;1;0;0;0;1;1;1" calcMode="linear"
                     repeatCount="indefinite" />
            </circle>
            <circle cx="42.601" cy="42.663" r="3" fill-opacity="0" fill="#EC3A34">
                <animate attributeName="fill-opacity"
                     begin="0s" dur="1.3s"
                     values="1;1;1;0;0;0;1;1" calcMode="linear"
                     repeatCount="indefinite" />
            </circle>
            <circle cx="27" cy="49.125" r="3" fill-opacity="0" fill="#EC3A34">
                <animate attributeName="fill-opacity"
                     begin="0s" dur="1.3s"
                     values="1;1;1;1;0;0;0;1" calcMode="linear"
                     repeatCount="indefinite" />
            </circle>
            <circle cx="11.399" cy="42.663" r="3" fill-opacity="0" fill="#EC3A34">
                <animate attributeName="fill-opacity"
                     begin="0s" dur="1.3s"
                     values="1;1;1;1;1;0;0;0" calcMode="linear"
                     repeatCount="indefinite" />
            </circle>
            <circle cx="4.938" cy="27.063" r="3" fill-opacity="0" fill="#EC3A34">
                <animate attributeName="fill-opacity"
                     begin="0s" dur="1.3s"
                     values="0;1;1;1;1;1;0;0" calcMode="linear"
                     repeatCount="indefinite" />
            </circle>
            <circle cx="11.399" cy="11.462" r="3" fill-opacity="0" fill="#EC3A34">
                <animate attributeName="fill-opacity"
                     begin="0s" dur="1.3s"
                     values="0;0;1;1;1;1;1;0" calcMode="linear"
                     repeatCount="indefinite" />
            </circle>
            <circle cx="27" cy="5" r="3" fill-opacity="0" fill="#EC3A34">
                <animate attributeName="fill-opacity"
                     begin="0s" dur="1.3s"
                     values="0;0;0;1;1;1;1;1" calcMode="linear"
                     repeatCount="indefinite" />
            </circle>
        <!-- </g> -->
    </g>
</svg>
