<svg width="19" height="19" viewBox="0 0 19 19" fill="none" xmlns="http://www.w3.org/2000/svg">
<path d="M12.6083 10.2653L12.1435 10.1054L12.5473 9.82745C14.0138 8.81844 14.8861 7.15832 14.8861 5.38778C14.8899 2.41784 12.4711 0 9.5 0C6.52887 0 4.11006 2.41784 4.11006 5.38778C4.11006 7.15832 4.98617 8.81844 6.44888 9.82745L6.85265 10.1054L6.38793 10.2653C5.02807 10.7375 3.81295 11.499 2.78067 12.5309C1.0437 14.2671 0.0609463 16.5555 0 19H1.02847C1.15798 14.4423 4.90998 10.7756 9.5 10.7756C14.09 10.7756 17.842 14.4423 17.9715 19H19C18.9391 16.5555 17.9563 14.2671 16.2193 12.5309C15.187 11.499 13.9719 10.7375 12.6083 10.2653ZM5.13853 5.38778C5.13853 2.98517 7.09643 1.02806 9.5 1.02806C11.9036 1.02806 13.8615 2.98517 13.8615 5.38778C13.8615 7.79038 11.9036 9.74749 9.5 9.74749C7.09643 9.74749 5.13853 7.79038 5.13853 5.38778Z" fill="#EC3A34"/>
</svg>
